DataScience 2 Blog - Hate-Speech Prediction
…
Fit

set.seed(2246)

fit_r0_l <- tune_grid(wf_r0_l, cv_folds, grid = lambda_grid, control = control_resamples(save_pred = TRUE))

Performance

wf_r0_l_performance <- collect_metrics(fit_r0_l)

wf_r0_l_performance

# A tibble: 60 × 7
    penalty .metric  .estimator  mean     n std_err .config              
      <dbl> <chr>    <chr>      <dbl> <int>   <dbl> <chr>                
 1 1   e-10 accuracy binary     0.691    10 0.00813 Preprocessor1_Model01
 2 1   e-10 roc_auc  binary     0.644    10 0.00954 Preprocessor1_Model01
 3 2.21e-10 accuracy binary     0.691    10 0.00813 Preprocessor1_Model02
 4 2.21e-10 roc_auc  binary     0.644    10 0.00954 Preprocessor1_Model02
 5 4.89e-10 accuracy binary     0.691    10 0.00813 Preprocessor1_Model03
 6 4.89e-10 roc_auc  binary     0.644    10 0.00954 Preprocessor1_Model03
 7 1.08e- 9 accuracy binary     0.691    10 0.00813 Preprocessor1_Model04
 8 1.08e- 9 roc_auc  binary     0.644    10 0.00954 Preprocessor1_Model04
 9 2.40e- 9 accuracy binary     0.691    10 0.00813 Preprocessor1_Model05
10 2.40e- 9 roc_auc  binary     0.644    10 0.00954 Preprocessor1_Model05
# … with 50 more rows
…
Fit

set.seed(2246)

fit_r1_l <- tune_grid(wf_r1_l, cv_folds, grid = lambda_grid, control = control_resamples(save_pred = TRUE))

Performance

wf_r1_l_performance <- collect_metrics(fit_r1_l)

wf_r1_l_performance

# A tibble: 60 × 7
    penalty .metric  .estimator  mean     n std_err .config              
      <dbl> <chr>    <chr>      <dbl> <int>   <dbl> <chr>                
 1 1   e-10 accuracy binary     0.684    10 0.00793 Preprocessor1_Model01
 2 1   e-10 roc_auc  binary     0.644    10 0.00748 Preprocessor1_Model01
 3 2.21e-10 accuracy binary     0.684    10 0.00793 Preprocessor1_Model02
 4 2.21e-10 roc_auc  binary     0.644    10 0.00748 Preprocessor1_Model02
 5 4.89e-10 accuracy binary     0.684    10 0.00793 Preprocessor1_Model03
 6 4.89e-10 roc_auc  binary     0.644    10 0.00748 Preprocessor1_Model03
 7 1.08e- 9 accuracy binary     0.684    10 0.00793 Preprocessor1_Model04
 8 1.08e- 9 roc_auc  binary     0.644    10 0.00748 Preprocessor1_Model04
 9 2.40e- 9 accuracy binary     0.684    10 0.00793 Preprocessor1_Model05
10 2.40e- 9 roc_auc  binary     0.644    10 0.00748 Preprocessor1_Model05
# … with 50 more rows
…
Fit

set.seed(2246)

fit_r2_l <- tune_grid(wf_r2_l, cv_folds, grid = lambda_grid, control = control_resamples(save_pred = TRUE))

Performance

wf_r2_l_performance <- collect_metrics(fit_r2_l)

wf_r2_l_performance

# A tibble: 60 × 7
    penalty .metric  .estimator  mean     n std_err .config              
      <dbl> <chr>    <chr>      <dbl> <int>   <dbl> <chr>                
 1 1   e-10 accuracy binary     0.683    10 0.00614 Preprocessor1_Model01
 2 1   e-10 roc_auc  binary     0.647    10 0.00728 Preprocessor1_Model01
 3 2.21e-10 accuracy binary     0.683    10 0.00614 Preprocessor1_Model02
 4 2.21e-10 roc_auc  binary     0.647    10 0.00728 Preprocessor1_Model02
 5 4.89e-10 accuracy binary     0.683    10 0.00614 Preprocessor1_Model03
 6 4.89e-10 roc_auc  binary     0.647    10 0.00728 Preprocessor1_Model03
 7 1.08e- 9 accuracy binary     0.683    10 0.00614 Preprocessor1_Model04
 8 1.08e- 9 roc_auc  binary     0.647    10 0.00728 Preprocessor1_Model04
 9 2.40e- 9 accuracy binary     0.683    10 0.00614 Preprocessor1_Model05
10 2.40e- 9 roc_auc  binary     0.647    10 0.00728 Preprocessor1_Model05
# … with 50 more rows
…
Fit

set.seed(2246)

fit_r0_rr <- tune_grid(wf_r0_rr, cv_folds, grid = lambda_grid, control = control_resamples(save_pred = TRUE))

Performance

wf_r0_rr_performance <- collect_metrics(fit_r0_rr)

wf_r0_rr_performance

# A tibble: 60 × 7
    penalty .metric  .estimator  mean     n std_err .config              
      <dbl> <chr>    <chr>      <dbl> <int>   <dbl> <chr>                
 1 1   e-10 accuracy binary     0.687    10 0.00693 Preprocessor1_Model01
 2 1   e-10 roc_auc  binary     0.644    10 0.00949 Preprocessor1_Model01
 3 2.21e-10 accuracy binary     0.687    10 0.00693 Preprocessor1_Model02
 4 2.21e-10 roc_auc  binary     0.644    10 0.00949 Preprocessor1_Model02
 5 4.89e-10 accuracy binary     0.687    10 0.00693 Preprocessor1_Model03
 6 4.89e-10 roc_auc  binary     0.644    10 0.00949 Preprocessor1_Model03
 7 1.08e- 9 accuracy binary     0.687    10 0.00693 Preprocessor1_Model04
 8 1.08e- 9 roc_auc  binary     0.644    10 0.00949 Preprocessor1_Model04
 9 2.40e- 9 accuracy binary     0.687    10 0.00693 Preprocessor1_Model05
10 2.40e- 9 roc_auc  binary     0.644    10 0.00949 Preprocessor1_Model05
# … with 50 more rows
…
Fit

set.seed(2246)

fit_r1_rr <- tune_grid(wf_r1_rr, cv_folds, grid = lambda_grid, control = control_resamples(save_pred = TRUE))

Performance

wf_r1_rr_performance <- collect_metrics(fit_r1_rr)

wf_r1_rr_performance

# A tibble: 60 × 7
    penalty .metric  .estimator  mean     n std_err .config              
      <dbl> <chr>    <chr>      <dbl> <int>   <dbl> <chr>                
 1 1   e-10 accuracy binary     0.685    10 0.00772 Preprocessor1_Model01
 2 1   e-10 roc_auc  binary     0.645    10 0.00752 Preprocessor1_Model01
 3 2.21e-10 accuracy binary     0.685    10 0.00772 Preprocessor1_Model02
 4 2.21e-10 roc_auc  binary     0.645    10 0.00752 Preprocessor1_Model02
 5 4.89e-10 accuracy binary     0.685    10 0.00772 Preprocessor1_Model03
 6 4.89e-10 roc_auc  binary     0.645    10 0.00752 Preprocessor1_Model03
 7 1.08e- 9 accuracy binary     0.685    10 0.00772 Preprocessor1_Model04
 8 1.08e- 9 roc_auc  binary     0.645    10 0.00752 Preprocessor1_Model04
 9 2.40e- 9 accuracy binary     0.685    10 0.00772 Preprocessor1_Model05
10 2.40e- 9 roc_auc  binary     0.645    10 0.00752 Preprocessor1_Model05
# … with 50 more rows
…
Fit

set.seed(2246)

fit_r2_rr <- tune_grid(wf_r2_rr, cv_folds, grid = lambda_grid, control = control_resamples(save_pred = TRUE))

Performance

wf_r2_rr_performance <- collect_metrics(fit_r2_rr)

wf_r2_rr_performance

# A tibble: 60 × 7
    penalty .metric  .estimator  mean     n std_err .config              
      <dbl> <chr>    <chr>      <dbl> <int>   <dbl> <chr>                
 1 1   e-10 accuracy binary     0.684    10 0.00581 Preprocessor1_Model01
 2 1   e-10 roc_auc  binary     0.647    10 0.00733 Preprocessor1_Model01
 3 2.21e-10 accuracy binary     0.684    10 0.00581 Preprocessor1_Model02
 4 2.21e-10 roc_auc  binary     0.647    10 0.00733 Preprocessor1_Model02
 5 4.89e-10 accuracy binary     0.684    10 0.00581 Preprocessor1_Model03
 6 4.89e-10 roc_auc  binary     0.647    10 0.00733 Preprocessor1_Model03
 7 1.08e- 9 accuracy binary     0.684    10 0.00581 Preprocessor1_Model04
 8 1.08e- 9 roc_auc  binary     0.647    10 0.00733 Preprocessor1_Model04
 9 2.40e- 9 accuracy binary     0.684    10 0.00581 Preprocessor1_Model05
10 2.40e- 9 roc_auc  binary     0.647    10 0.00733 Preprocessor1_Model05
# … with 50 more rows
…
